-- Merging decision tree log ---
manifest
ADDED from C:\Users\NARSIMHA BALU\Desktop\AndroidBK\EditTextWatch\edittextwatch\app\src\main\AndroidManifest.xml:2:1-31:12
	package
		ADDED from C:\Users\NARSIMHA BALU\Desktop\AndroidBK\EditTextWatch\edittextwatch\app\src\main\AndroidManifest.xml:3:5-49
		INJECTED from C:\Users\NARSIMHA BALU\Desktop\AndroidBK\EditTextWatch\edittextwatch\app\src\main\AndroidManifest.xml
		INJECTED from C:\Users\NARSIMHA BALU\Desktop\AndroidBK\EditTextWatch\edittextwatch\app\src\main\AndroidManifest.xml
	android:versionName
		INJECTED from C:\Users\NARSIMHA BALU\Desktop\AndroidBK\EditTextWatch\edittextwatch\app\src\main\AndroidManifest.xml
		INJECTED from C:\Users\NARSIMHA BALU\Desktop\AndroidBK\EditTextWatch\edittextwatch\app\src\main\AndroidManifest.xml
	xmlns:android
		ADDED from C:\Users\NARSIMHA BALU\Desktop\AndroidBK\EditTextWatch\edittextwatch\app\src\main\AndroidManifest.xml:2:11-69
	android:versionCode
		INJECTED from C:\Users\NARSIMHA BALU\Desktop\AndroidBK\EditTextWatch\edittextwatch\app\src\main\AndroidManifest.xml
		INJECTED from C:\Users\NARSIMHA BALU\Desktop\AndroidBK\EditTextWatch\edittextwatch\app\src\main\AndroidManifest.xml
application
ADDED from C:\Users\NARSIMHA BALU\Desktop\AndroidBK\EditTextWatch\edittextwatch\app\src\main\AndroidManifest.xml:5:5-29:19
MERGED from [com.android.support:appcompat-v7:25.1.0] C:\Users\NARSIMHA BALU\Desktop\AndroidBK\EditTextWatch\edittextwatch\app\build\intermediates\exploded-aar\com.android.support\appcompat-v7\25.1.0\AndroidManifest.xml:25:5-20
MERGED from [com.android.support:support-v4:25.1.0] C:\Users\NARSIMHA BALU\Desktop\AndroidBK\EditTextWatch\edittextwatch\app\build\intermediates\exploded-aar\com.android.support\support-v4\25.1.0\AndroidManifest.xml:25:5-20
MERGED from [com.android.support:support-fragment:25.1.0] C:\Users\NARSIMHA BALU\Desktop\AndroidBK\EditTextWatch\edittextwatch\app\build\intermediates\exploded-aar\com.android.support\support-fragment\25.1.0\AndroidManifest.xml:25:5-20
MERGED from [com.android.support:support-media-compat:25.1.0] C:\Users\NARSIMHA BALU\Desktop\AndroidBK\EditTextWatch\edittextwatch\app\build\intermediates\exploded-aar\com.android.support\support-media-compat\25.1.0\AndroidManifest.xml:25:5-20
MERGED from [com.android.support:support-core-ui:25.1.0] C:\Users\NARSIMHA BALU\Desktop\AndroidBK\EditTextWatch\edittextwatch\app\build\intermediates\exploded-aar\com.android.support\support-core-ui\25.1.0\AndroidManifest.xml:25:5-20
MERGED from [com.android.support:support-core-utils:25.1.0] C:\Users\NARSIMHA BALU\Desktop\AndroidBK\EditTextWatch\edittextwatch\app\build\intermediates\exploded-aar\com.android.support\support-core-utils\25.1.0\AndroidManifest.xml:25:5-20
MERGED from [com.android.support:animated-vector-drawable:25.1.0] C:\Users\NARSIMHA BALU\Desktop\AndroidBK\EditTextWatch\edittextwatch\app\build\intermediates\exploded-aar\com.android.support\animated-vector-drawable\25.1.0\AndroidManifest.xml:22:5-20
MERGED from [com.android.support:support-vector-drawable:25.1.0] C:\Users\NARSIMHA BALU\Desktop\AndroidBK\EditTextWatch\edittextwatch\app\build\intermediates\exploded-aar\com.android.support\support-vector-drawable\25.1.0\AndroidManifest.xml:23:5-20
MERGED from [com.android.support:support-compat:25.1.0] C:\Users\NARSIMHA BALU\Desktop\AndroidBK\EditTextWatch\edittextwatch\app\build\intermediates\exploded-aar\com.android.support\support-compat\25.1.0\AndroidManifest.xml:25:5-20
	android:label
		ADDED from C:\Users\NARSIMHA BALU\Desktop\AndroidBK\EditTextWatch\edittextwatch\app\src\main\AndroidManifest.xml:8:9-41
	android:supportsRtl
		ADDED from C:\Users\NARSIMHA BALU\Desktop\AndroidBK\EditTextWatch\edittextwatch\app\src\main\AndroidManifest.xml:9:9-35
	android:allowBackup
		ADDED from C:\Users\NARSIMHA BALU\Desktop\AndroidBK\EditTextWatch\edittextwatch\app\src\main\AndroidManifest.xml:6:9-35
	android:icon
		ADDED from C:\Users\NARSIMHA BALU\Desktop\AndroidBK\EditTextWatch\edittextwatch\app\src\main\AndroidManifest.xml:7:9-43
	android:theme
		ADDED from C:\Users\NARSIMHA BALU\Desktop\AndroidBK\EditTextWatch\edittextwatch\app\src\main\AndroidManifest.xml:10:9-40
activity#com.example.innovare.keyboardwatch.MainActivity
ADDED from C:\Users\NARSIMHA BALU\Desktop\AndroidBK\EditTextWatch\edittextwatch\app\src\main\AndroidManifest.xml:11:9-16:20
	android:name
		ADDED from C:\Users\NARSIMHA BALU\Desktop\AndroidBK\EditTextWatch\edittextwatch\app\src\main\AndroidManifest.xml:11:19-47
intent-filter#android.intent.action.MAIN+android.intent.category.LAUNCHER
ADDED from C:\Users\NARSIMHA BALU\Desktop\AndroidBK\EditTextWatch\edittextwatch\app\src\main\AndroidManifest.xml:12:13-15:29
action#android.intent.action.MAIN
ADDED from C:\Users\NARSIMHA BALU\Desktop\AndroidBK\EditTextWatch\edittextwatch\app\src\main\AndroidManifest.xml:13:17-69
	android:name
		ADDED from C:\Users\NARSIMHA BALU\Desktop\AndroidBK\EditTextWatch\edittextwatch\app\src\main\AndroidManifest.xml:13:25-66
category#android.intent.category.LAUNCHER
ADDED from C:\Users\NARSIMHA BALU\Desktop\AndroidBK\EditTextWatch\edittextwatch\app\src\main\AndroidManifest.xml:14:17-77
	android:name
		ADDED from C:\Users\NARSIMHA BALU\Desktop\AndroidBK\EditTextWatch\edittextwatch\app\src\main\AndroidManifest.xml:14:27-74
service#com.example.innovare.keyboardwatch.MyAccessibilityService
ADDED from C:\Users\NARSIMHA BALU\Desktop\AndroidBK\EditTextWatch\edittextwatch\app\src\main\AndroidManifest.xml:19:9-27:19
	android:permission
		ADDED from C:\Users\NARSIMHA BALU\Desktop\AndroidBK\EditTextWatch\edittextwatch\app\src\main\AndroidManifest.xml:20:13-79
	android:name
		ADDED from C:\Users\NARSIMHA BALU\Desktop\AndroidBK\EditTextWatch\edittextwatch\app\src\main\AndroidManifest.xml:19:18-56
intent-filter#android.accessibilityservice.AccessibilityService
ADDED from C:\Users\NARSIMHA BALU\Desktop\AndroidBK\EditTextWatch\edittextwatch\app\src\main\AndroidManifest.xml:21:13-23:29
action#android.accessibilityservice.AccessibilityService
ADDED from C:\Users\NARSIMHA BALU\Desktop\AndroidBK\EditTextWatch\edittextwatch\app\src\main\AndroidManifest.xml:22:17-92
	android:name
		ADDED from C:\Users\NARSIMHA BALU\Desktop\AndroidBK\EditTextWatch\edittextwatch\app\src\main\AndroidManifest.xml:22:25-89
meta-data#android.accessibilityservice
ADDED from C:\Users\NARSIMHA BALU\Desktop\AndroidBK\EditTextWatch\edittextwatch\app\src\main\AndroidManifest.xml:24:13-25:63
	android:resource
		ADDED from C:\Users\NARSIMHA BALU\Desktop\AndroidBK\EditTextWatch\edittextwatch\app\src\main\AndroidManifest.xml:25:17-61
	android:name
		ADDED from C:\Users\NARSIMHA BALU\Desktop\AndroidBK\EditTextWatch\edittextwatch\app\src\main\AndroidManifest.xml:24:24-67
uses-sdk
INJECTED from C:\Users\NARSIMHA BALU\Desktop\AndroidBK\EditTextWatch\edittextwatch\app\src\main\AndroidManifest.xml reason: use-sdk injection requested
MERGED from [com.android.support:appcompat-v7:25.1.0] C:\Users\NARSIMHA BALU\Desktop\AndroidBK\EditTextWatch\edittextwatch\app\build\intermediates\exploded-aar\com.android.support\appcompat-v7\25.1.0\AndroidManifest.xml:21:5-23:78
MERGED from [com.android.support:support-v4:25.1.0] C:\Users\NARSIMHA BALU\Desktop\AndroidBK\EditTextWatch\edittextwatch\app\build\intermediates\exploded-aar\com.android.support\support-v4\25.1.0\AndroidManifest.xml:21:5-23:54
MERGED from [com.android.support:support-fragment:25.1.0] C:\Users\NARSIMHA BALU\Desktop\AndroidBK\EditTextWatch\edittextwatch\app\build\intermediates\exploded-aar\com.android.support\support-fragment\25.1.0\AndroidManifest.xml:21:5-23:60
MERGED from [com.android.support:support-media-compat:25.1.0] C:\Users\NARSIMHA BALU\Desktop\AndroidBK\EditTextWatch\edittextwatch\app\build\intermediates\exploded-aar\com.android.support\support-media-compat\25.1.0\AndroidManifest.xml:21:5-23:63
MERGED from [com.android.support:support-core-ui:25.1.0] C:\Users\NARSIMHA BALU\Desktop\AndroidBK\EditTextWatch\edittextwatch\app\build\intermediates\exploded-aar\com.android.support\support-core-ui\25.1.0\AndroidManifest.xml:21:5-23:58
MERGED from [com.android.support:support-core-utils:25.1.0] C:\Users\NARSIMHA BALU\Desktop\AndroidBK\EditTextWatch\edittextwatch\app\build\intermediates\exploded-aar\com.android.support\support-core-utils\25.1.0\AndroidManifest.xml:21:5-23:61
MERGED from [com.android.support:animated-vector-drawable:25.1.0] C:\Users\NARSIMHA BALU\Desktop\AndroidBK\EditTextWatch\edittextwatch\app\build\intermediates\exploded-aar\com.android.support\animated-vector-drawable\25.1.0\AndroidManifest.xml:20:5-44
MERGED from [com.android.support:support-vector-drawable:25.1.0] C:\Users\NARSIMHA BALU\Desktop\AndroidBK\EditTextWatch\edittextwatch\app\build\intermediates\exploded-aar\com.android.support\support-vector-drawable\25.1.0\AndroidManifest.xml:21:5-43
MERGED from [com.android.support:support-compat:25.1.0] C:\Users\NARSIMHA BALU\Desktop\AndroidBK\EditTextWatch\edittextwatch\app\build\intermediates\exploded-aar\com.android.support\support-compat\25.1.0\AndroidManifest.xml:21:5-23:58
	tools:overrideLibrary
		ADDED from [com.android.support:appcompat-v7:25.1.0] C:\Users\NARSIMHA BALU\Desktop\AndroidBK\EditTextWatch\edittextwatch\app\build\intermediates\exploded-aar\com.android.support\appcompat-v7\25.1.0\AndroidManifest.xml:23:9-75
	android:targetSdkVersion
		INJECTED from C:\Users\NARSIMHA BALU\Desktop\AndroidBK\EditTextWatch\edittextwatch\app\src\main\AndroidManifest.xml
		INJECTED from C:\Users\NARSIMHA BALU\Desktop\AndroidBK\EditTextWatch\edittextwatch\app\src\main\AndroidManifest.xml
	android:minSdkVersion
		INJECTED from C:\Users\NARSIMHA BALU\Desktop\AndroidBK\EditTextWatch\edittextwatch\app\src\main\AndroidManifest.xml
		INJECTED from C:\Users\NARSIMHA BALU\Desktop\AndroidBK\EditTextWatch\edittextwatch\app\src\main\AndroidManifest.xml
